<?xml version="1.0" encoding="utf-8"?>
<!DOCTYPE eagle SYSTEM "eagle.dtd">
<eagle version="7.7.0">
<drawing>
<settings>
<setting alwaysvectorfont="no"/>
<setting verticaltext="up"/>
</settings>
<grid distance="0.01" unitdist="inch" unit="inch" style="lines" multiple="1" display="yes" altdistance="0.01" altunitdist="inch" altunit="inch"/>
<layers>
<layer number="1" name="Top" color="4" fill="1" visible="yes" active="yes"/>
<layer number="16" name="Bottom" color="1" fill="1" visible="yes" active="yes"/>
<layer number="17" name="Pads" color="2" fill="1" visible="yes" active="yes"/>
<layer number="18" name="Vias" color="2" fill="1" visible="yes" active="yes"/>
<layer number="19" name="Unrouted" color="6" fill="1" visible="yes" active="yes"/>
<layer number="20" name="Dimension" color="15" fill="1" visible="yes" active="yes"/>
<layer number="21" name="tPlace" color="7" fill="1" visible="yes" active="yes"/>
<layer number="22" name="bPlace" color="7" fill="1" visible="yes" active="yes"/>
<layer number="23" name="tOrigins" color="15" fill="1" visible="yes" active="yes"/>
<layer number="24" name="bOrigins" color="15" fill="1" visible="yes" active="yes"/>
<layer number="25" name="tNames" color="7" fill="1" visible="yes" active="yes"/>
<layer number="26" name="bNames" color="7" fill="1" visible="yes" active="yes"/>
<layer number="27" name="tValues" color="7" fill="1" visible="yes" active="yes"/>
<layer number="28" name="bValues" color="7" fill="1" visible="yes" active="yes"/>
<layer number="29" name="tStop" color="7" fill="3" visible="yes" active="yes"/>
<layer number="30" name="bStop" color="7" fill="6" visible="yes" active="yes"/>
<layer number="31" name="tCream" color="7" fill="4" visible="yes" active="yes"/>
<layer number="32" name="bCream" color="7" fill="5" visible="yes" active="yes"/>
<layer number="33" name="tFinish" color="6" fill="3" visible="yes" active="yes"/>
<layer number="34" name="bFinish" color="6" fill="6" visible="yes" active="yes"/>
<layer number="35" name="tGlue" color="7" fill="4" visible="yes" active="yes"/>
<layer number="36" name="bGlue" color="7" fill="5" visible="yes" active="yes"/>
<layer number="37" name="tTest" color="7" fill="1" visible="yes" active="yes"/>
<layer number="38" name="bTest" color="7" fill="1" visible="yes" active="yes"/>
<layer number="39" name="tKeepout" color="4" fill="11" visible="yes" active="yes"/>
<layer number="40" name="bKeepout" color="1" fill="11" visible="yes" active="yes"/>
<layer number="41" name="tRestrict" color="4" fill="10" visible="yes" active="yes"/>
<layer number="42" name="bRestrict" color="1" fill="10" visible="yes" active="yes"/>
<layer number="43" name="vRestrict" color="2" fill="10" visible="yes" active="yes"/>
<layer number="44" name="Drills" color="7" fill="1" visible="yes" active="yes"/>
<layer number="45" name="Holes" color="7" fill="1" visible="yes" active="yes"/>
<layer number="46" name="Milling" color="3" fill="1" visible="yes" active="yes"/>
<layer number="47" name="Measures" color="7" fill="1" visible="yes" active="yes"/>
<layer number="48" name="Document" color="7" fill="1" visible="yes" active="yes"/>
<layer number="49" name="Reference" color="7" fill="1" visible="yes" active="yes"/>
<layer number="50" name="dxf" color="7" fill="1" visible="no" active="no"/>
<layer number="51" name="tDocu" color="7" fill="1" visible="yes" active="yes"/>
<layer number="52" name="bDocu" color="7" fill="1" visible="yes" active="yes"/>
<layer number="53" name="tGND_GNDA" color="7" fill="9" visible="no" active="no"/>
<layer number="54" name="bGND_GNDA" color="1" fill="9" visible="no" active="no"/>
<layer number="56" name="wert" color="7" fill="1" visible="no" active="no"/>
<layer number="57" name="tCAD" color="7" fill="1" visible="no" active="no"/>
<layer number="59" name="tCarbon" color="7" fill="1" visible="no" active="no"/>
<layer number="60" name="bCarbon" color="7" fill="1" visible="no" active="no"/>
<layer number="88" name="SimResults" color="9" fill="1" visible="yes" active="yes"/>
<layer number="89" name="SimProbes" color="9" fill="1" visible="yes" active="yes"/>
<layer number="90" name="Modules" color="5" fill="1" visible="no" active="no"/>
<layer number="91" name="Nets" color="2" fill="1" visible="no" active="no"/>
<layer number="92" name="Busses" color="1" fill="1" visible="no" active="no"/>
<layer number="93" name="Pins" color="2" fill="1" visible="no" active="no"/>
<layer number="94" name="Symbols" color="4" fill="1" visible="no" active="no"/>
<layer number="95" name="Names" color="7" fill="1" visible="no" active="no"/>
<layer number="96" name="Values" color="7" fill="1" visible="no" active="no"/>
<layer number="97" name="Info" color="7" fill="1" visible="no" active="no"/>
<layer number="98" name="Guide" color="6" fill="1" visible="no" active="no"/>
<layer number="99" name="SpiceOrder" color="7" fill="1" visible="no" active="no"/>
<layer number="100" name="Muster" color="7" fill="1" visible="no" active="no"/>
<layer number="101" name="Patch_Top" color="12" fill="4" visible="yes" active="yes"/>
<layer number="102" name="Vscore" color="7" fill="1" visible="yes" active="yes"/>
<layer number="103" name="tMap" color="7" fill="1" visible="yes" active="yes"/>
<layer number="104" name="Name" color="16" fill="1" visible="yes" active="yes"/>
<layer number="105" name="tPlate" color="7" fill="1" visible="yes" active="yes"/>
<layer number="106" name="bPlate" color="7" fill="1" visible="yes" active="yes"/>
<layer number="107" name="Crop" color="7" fill="1" visible="yes" active="yes"/>
<layer number="108" name="tplace-old" color="10" fill="1" visible="yes" active="yes"/>
<layer number="109" name="ref-old" color="11" fill="1" visible="yes" active="yes"/>
<layer number="110" name="fp0" color="7" fill="1" visible="yes" active="yes"/>
<layer number="111" name="LPC17xx" color="7" fill="1" visible="yes" active="yes"/>
<layer number="112" name="tSilk" color="7" fill="1" visible="yes" active="yes"/>
<layer number="113" name="IDFDebug" color="4" fill="1" visible="yes" active="yes"/>
<layer number="114" name="Badge_Outline" color="7" fill="1" visible="yes" active="yes"/>
<layer number="115" name="ReferenceISLANDS" color="7" fill="1" visible="yes" active="yes"/>
<layer number="116" name="Patch_BOT" color="9" fill="4" visible="yes" active="yes"/>
<layer number="118" name="Rect_Pads" color="7" fill="1" visible="yes" active="yes"/>
<layer number="121" name="_tsilk" color="7" fill="1" visible="yes" active="yes"/>
<layer number="122" name="_bsilk" color="7" fill="1" visible="yes" active="yes"/>
<layer number="123" name="tTestmark" color="7" fill="1" visible="yes" active="yes"/>
<layer number="124" name="bTestmark" color="7" fill="1" visible="yes" active="yes"/>
<layer number="125" name="_tNames" color="7" fill="1" visible="yes" active="yes"/>
<layer number="126" name="_bNames" color="7" fill="1" visible="yes" active="yes"/>
<layer number="127" name="_tValues" color="7" fill="1" visible="yes" active="yes"/>
<layer number="128" name="_bValues" color="7" fill="1" visible="yes" active="yes"/>
<layer number="129" name="Mask" color="7" fill="1" visible="yes" active="yes"/>
<layer number="131" name="tAdjust" color="7" fill="1" visible="yes" active="yes"/>
<layer number="132" name="bAdjust" color="7" fill="1" visible="yes" active="yes"/>
<layer number="144" name="Drill_legend" color="7" fill="1" visible="yes" active="yes"/>
<layer number="150" name="Notes" color="7" fill="1" visible="yes" active="yes"/>
<layer number="151" name="HeatSink" color="7" fill="1" visible="yes" active="yes"/>
<layer number="152" name="_bDocu" color="7" fill="1" visible="yes" active="yes"/>
<layer number="153" name="FabDoc1" color="7" fill="1" visible="yes" active="yes"/>
<layer number="154" name="FabDoc2" color="7" fill="1" visible="yes" active="yes"/>
<layer number="155" name="FabDoc3" color="7" fill="1" visible="yes" active="yes"/>
<layer number="199" name="Contour" color="7" fill="1" visible="yes" active="yes"/>
<layer number="200" name="200bmp" color="1" fill="10" visible="yes" active="yes"/>
<layer number="201" name="201bmp" color="2" fill="10" visible="yes" active="yes"/>
<layer number="202" name="202bmp" color="3" fill="10" visible="yes" active="yes"/>
<layer number="203" name="203bmp" color="4" fill="10" visible="yes" active="yes"/>
<layer number="204" name="204bmp" color="5" fill="10" visible="yes" active="yes"/>
<layer number="205" name="205bmp" color="6" fill="10" visible="yes" active="yes"/>
<layer number="206" name="206bmp" color="7" fill="10" visible="yes" active="yes"/>
<layer number="207" name="207bmp" color="8" fill="10" visible="yes" active="yes"/>
<layer number="208" name="208bmp" color="9" fill="10" visible="yes" active="yes"/>
<layer number="209" name="209bmp" color="7" fill="1" visible="yes" active="yes"/>
<layer number="210" name="210bmp" color="7" fill="1" visible="yes" active="yes"/>
<layer number="211" name="211bmp" color="7" fill="1" visible="yes" active="yes"/>
<layer number="212" name="212bmp" color="7" fill="1" visible="yes" active="yes"/>
<layer number="213" name="213bmp" color="7" fill="1" visible="yes" active="yes"/>
<layer number="214" name="214bmp" color="7" fill="1" visible="yes" active="yes"/>
<layer number="215" name="215bmp" color="7" fill="1" visible="yes" active="yes"/>
<layer number="216" name="216bmp" color="7" fill="1" visible="yes" active="yes"/>
<layer number="217" name="217bmp" color="18" fill="1" visible="no" active="no"/>
<layer number="218" name="218bmp" color="19" fill="1" visible="no" active="no"/>
<layer number="219" name="219bmp" color="20" fill="1" visible="no" active="no"/>
<layer number="220" name="220bmp" color="21" fill="1" visible="no" active="no"/>
<layer number="221" name="221bmp" color="22" fill="1" visible="no" active="no"/>
<layer number="222" name="222bmp" color="23" fill="1" visible="no" active="no"/>
<layer number="223" name="223bmp" color="24" fill="1" visible="no" active="no"/>
<layer number="224" name="224bmp" color="25" fill="1" visible="no" active="no"/>
<layer number="225" name="225bmp" color="7" fill="1" visible="yes" active="yes"/>
<layer number="226" name="226bmp" color="7" fill="1" visible="yes" active="yes"/>
<layer number="227" name="227bmp" color="7" fill="1" visible="yes" active="yes"/>
<layer number="228" name="228bmp" color="7" fill="1" visible="yes" active="yes"/>
<layer number="229" name="229bmp" color="7" fill="1" visible="yes" active="yes"/>
<layer number="230" name="230bmp" color="7" fill="1" visible="yes" active="yes"/>
<layer number="231" name="231bmp" color="7" fill="1" visible="yes" active="yes"/>
<layer number="232" name="Eagle3D_PG2" color="7" fill="1" visible="yes" active="yes"/>
<layer number="233" name="Eagle3D_PG3" color="7" fill="1" visible="yes" active="yes"/>
<layer number="248" name="Housing" color="7" fill="1" visible="yes" active="yes"/>
<layer number="249" name="Edge" color="7" fill="1" visible="yes" active="yes"/>
<layer number="250" name="Descript" color="3" fill="1" visible="no" active="no"/>
<layer number="251" name="SMDround" color="12" fill="11" visible="no" active="no"/>
<layer number="254" name="cooling" color="7" fill="1" visible="yes" active="yes"/>
<layer number="255" name="routoute" color="7" fill="1" visible="yes" active="yes"/>
</layers>
<board>
<plain>
<wire x1="0" y1="0" x2="0" y2="30.48" width="0.3048" layer="20"/>
<wire x1="0" y1="30.48" x2="59.69" y2="30.48" width="0.3048" layer="20"/>
<wire x1="59.69" y1="30.48" x2="59.69" y2="0" width="0.3048" layer="20"/>
<wire x1="59.69" y1="0" x2="0" y2="0" width="0.3048" layer="20"/>
<text x="7.62" y="12.192" size="1.778" layer="16" font="vector" ratio="15" rot="MR0">HSSV
ECSL
2018</text>
</plain>
<libraries>
<library name="easy_access">
<packages>
<package name="RFID-RC522">
<wire x1="-20" y1="-30" x2="-20" y2="30" width="0.127" layer="21"/>
<wire x1="-20" y1="30" x2="20" y2="30" width="0.127" layer="21"/>
<wire x1="20" y1="30" x2="20" y2="-30" width="0.127" layer="21"/>
<wire x1="20" y1="-30" x2="-20" y2="-30" width="0.127" layer="21"/>
<pad name="P1" x="-8.89" y="-28.73" drill="0.8128" shape="offset" rot="R90"/>
<pad name="P2" x="-6.35" y="-28.73" drill="0.8128" shape="offset" rot="R90"/>
<pad name="P3" x="-3.81" y="-28.73" drill="0.8128" shape="offset" rot="R90"/>
<pad name="P4" x="-1.27" y="-28.73" drill="0.8128" shape="offset" rot="R90"/>
<pad name="P5" x="1.27" y="-28.73" drill="0.8128" shape="offset" rot="R90"/>
<pad name="P6" x="3.81" y="-28.73" drill="0.8128" shape="offset" rot="R90"/>
<pad name="P7" x="6.35" y="-28.73" drill="0.8128" shape="offset" rot="R90"/>
<pad name="P8" x="8.89" y="-28.73" drill="0.8128" shape="offset" rot="R90"/>
<polygon width="0.127" layer="41">
<vertex x="-20" y="30"/>
<vertex x="20" y="30"/>
<vertex x="20" y="-15"/>
<vertex x="-20" y="-15"/>
</polygon>
<polygon width="0.127" layer="42">
<vertex x="-20" y="30"/>
<vertex x="20" y="30"/>
<vertex x="20" y="-15"/>
<vertex x="-20" y="-15"/>
</polygon>
<text x="19" y="-16" size="2.54" layer="21" rot="R180">&gt;NAME</text>
</package>
<package name="RPI-802.15.4">
<wire x1="-9" y1="-15" x2="-9" y2="15" width="0.127" layer="21"/>
<wire x1="-9" y1="15" x2="9" y2="15" width="0.127" layer="21"/>
<wire x1="9" y1="15" x2="9" y2="-15" width="0.127" layer="21"/>
<wire x1="9" y1="-15" x2="-9" y2="-15" width="0.127" layer="21"/>
<polygon width="0.127" layer="41">
<vertex x="-9" y="15"/>
<vertex x="9" y="15"/>
<vertex x="9" y="5"/>
<vertex x="-9" y="5"/>
</polygon>
<polygon width="0.127" layer="42">
<vertex x="-9" y="15"/>
<vertex x="9" y="15"/>
<vertex x="9" y="5"/>
<vertex x="-9" y="5"/>
</polygon>
<text x="-8" y="3" size="1.27" layer="25">&gt;NAME</text>
<text x="-8" y="0" size="1.27" layer="25">&gt;PART</text>
<pad name="P1" x="7.73" y="-11.19" drill="0.8128" rot="R90"/>
<pad name="P2" x="7.73" y="-13.73" drill="0.8128" rot="R90"/>
<pad name="P3" x="5.19" y="-11.19" drill="0.8128" rot="R90"/>
<pad name="P4" x="5.19" y="-13.73" drill="0.8128" rot="R90"/>
<pad name="P5" x="2.65" y="-11.19" drill="0.8128" rot="R90"/>
<pad name="P6" x="2.65" y="-13.73" drill="0.8128" rot="R90"/>
<pad name="P7" x="0.11" y="-11.19" drill="0.8128" rot="R90"/>
<pad name="P8" x="0.11" y="-13.73" drill="0.8128" rot="R90"/>
<pad name="P9" x="-2.43" y="-11.19" drill="0.8128" rot="R90"/>
<pad name="P10" x="-2.43" y="-13.73" drill="0.8128" rot="R90"/>
<pad name="P11" x="-4.97" y="-11.19" drill="0.8128" rot="R90"/>
<pad name="P12" x="-4.97" y="-13.73" drill="0.8128" rot="R90"/>
<wire x1="9" y1="-10" x2="7" y2="-10" width="0.127" layer="25"/>
<wire x1="7" y1="-10" x2="7" y2="-12" width="0.127" layer="25"/>
<wire x1="7" y1="-12" x2="9" y2="-12" width="0.127" layer="25"/>
</package>
<package name="SOD123">
<description>&lt;b&gt;SMALL OUTLINE DIODE&lt;/b&gt;</description>
<wire x1="-2.973" y1="0.983" x2="2.973" y2="0.983" width="0.0508" layer="39"/>
<wire x1="2.973" y1="-0.983" x2="-2.973" y2="-0.983" width="0.0508" layer="39"/>
<wire x1="-2.973" y1="-0.983" x2="-2.973" y2="0.983" width="0.0508" layer="39"/>
<wire x1="2.973" y1="0.983" x2="2.973" y2="-0.983" width="0.0508" layer="39"/>
<wire x1="-1.321" y1="0.787" x2="1.321" y2="0.787" width="0.1016" layer="51"/>
<wire x1="-1.321" y1="-0.787" x2="1.321" y2="-0.787" width="0.1016" layer="51"/>
<wire x1="-1.321" y1="-0.787" x2="-1.321" y2="0.787" width="0.1016" layer="51"/>
<wire x1="1.321" y1="-0.787" x2="1.321" y2="0.787" width="0.1016" layer="51"/>
<wire x1="-1" y1="0" x2="0" y2="0.5" width="0.2032" layer="51"/>
<wire x1="0" y1="0.5" x2="0" y2="-0.5" width="0.2032" layer="51"/>
<wire x1="0" y1="-0.5" x2="-1" y2="0" width="0.2032" layer="51"/>
<wire x1="-1" y1="0.5" x2="-1" y2="0" width="0.2032" layer="51"/>
<wire x1="-1" y1="0" x2="-1" y2="-0.5" width="0.2032" layer="51"/>
<rectangle x1="-1.9558" y1="-0.3048" x2="-1.3716" y2="0.3048" layer="51"/>
<rectangle x1="1.3716" y1="-0.3048" x2="1.9558" y2="0.3048" layer="51"/>
<rectangle x1="-0.4001" y1="-0.7" x2="0.4001" y2="0.7" layer="35"/>
<smd name="1" x="-1.7" y="0" dx="1.6" dy="0.8" layer="1"/>
<smd name="2" x="1.7" y="0" dx="1.6" dy="0.8" layer="1"/>
<text x="-1.905" y="1.905" size="1.27" layer="25">&gt;NAME</text>
<text x="-1.905" y="-3.175" size="1.27" layer="27">&gt;VALUE</text>
</package>
</packages>
</library>
<library name="Teensy_3_and_LC_Series_Boards_v1.4">
<packages>
<package name="TEENSY_3.0-3.2&amp;LC_OUTER_ROW">
<pad name="GND" x="-7.62" y="16.51" drill="0.9652"/>
<pad name="0" x="-7.62" y="13.97" drill="0.9652"/>
<pad name="1" x="-7.62" y="11.43" drill="0.9652"/>
<pad name="2" x="-7.62" y="8.89" drill="0.9652"/>
<pad name="3" x="-7.62" y="6.35" drill="0.9652"/>
<pad name="4" x="-7.62" y="3.81" drill="0.9652"/>
<pad name="5" x="-7.62" y="1.27" drill="0.9652"/>
<pad name="6" x="-7.62" y="-1.27" drill="0.9652"/>
<pad name="7" x="-7.62" y="-3.81" drill="0.9652"/>
<pad name="8" x="-7.62" y="-6.35" drill="0.9652"/>
<pad name="9" x="-7.62" y="-8.89" drill="0.9652"/>
<pad name="10" x="-7.62" y="-11.43" drill="0.9652"/>
<pad name="11" x="-7.62" y="-13.97" drill="0.9652"/>
<pad name="12" x="-7.62" y="-16.51" drill="0.9652"/>
<pad name="VBAT" x="-5.08" y="-16.51" drill="0.9652"/>
<pad name="3.3V1" x="-2.54" y="-16.51" drill="0.9652"/>
<pad name="GND1" x="0" y="-16.51" drill="0.9652"/>
<pad name="PGM" x="2.54" y="-16.51" drill="0.9652"/>
<pad name="RESET/DAC" x="5.08" y="-16.51" drill="0.9652"/>
<pad name="13" x="7.62" y="-16.51" drill="0.9652"/>
<pad name="14/A0" x="7.62" y="-13.97" drill="0.9652"/>
<pad name="15/A1" x="7.62" y="-11.43" drill="0.9652"/>
<pad name="16/A2" x="7.62" y="-8.89" drill="0.9652"/>
<pad name="17/A3" x="7.62" y="-6.35" drill="0.9652"/>
<pad name="18/A4" x="7.62" y="-3.81" drill="0.9652"/>
<pad name="19/A5" x="7.62" y="-1.27" drill="0.9652"/>
<pad name="20/A6" x="7.62" y="1.27" drill="0.9652"/>
<pad name="21/A7" x="7.62" y="3.81" drill="0.9652"/>
<pad name="22/A8" x="7.62" y="6.35" drill="0.9652"/>
<pad name="23/A9" x="7.62" y="8.89" drill="0.9652"/>
<pad name="3.3V" x="7.62" y="11.43" drill="0.9652"/>
<pad name="AGND" x="7.62" y="13.97" drill="0.9652"/>
<pad name="VIN" x="7.62" y="16.51" drill="0.9652"/>
<wire x1="-8.89" y1="17.78" x2="8.89" y2="17.78" width="0.127" layer="51"/>
<wire x1="8.89" y1="17.78" x2="8.89" y2="-17.78" width="0.127" layer="51"/>
<wire x1="8.89" y1="-17.78" x2="-8.89" y2="-17.78" width="0.127" layer="51"/>
<wire x1="-8.89" y1="-17.78" x2="-8.89" y2="17.78" width="0.127" layer="51"/>
<wire x1="-1.27" y1="16.51" x2="1.27" y2="16.51" width="0.2032" layer="21"/>
<wire x1="1.27" y1="16.51" x2="1.27" y2="17.78" width="0.2032" layer="21"/>
<wire x1="1.27" y1="17.78" x2="8.89" y2="17.78" width="0.2032" layer="21"/>
<wire x1="8.89" y1="17.78" x2="8.89" y2="-17.78" width="0.2032" layer="21"/>
<wire x1="8.89" y1="-17.78" x2="-8.89" y2="-17.78" width="0.2032" layer="21"/>
<wire x1="-8.89" y1="-17.78" x2="-8.89" y2="17.78" width="0.2032" layer="21"/>
<wire x1="-8.89" y1="17.78" x2="-1.27" y2="17.78" width="0.2032" layer="21"/>
<wire x1="-1.27" y1="17.78" x2="-1.27" y2="16.51" width="0.2032" layer="21"/>
<text x="-2.54" y="13.97" size="1.27" layer="25" font="vector">&gt;NAME</text>
<text x="-3.81" y="-13.97" size="1.27" layer="27" font="vector">&gt;VALUE</text>
</package>
</packages>
</library>
<library name="SparkFun-LED">
<description>&lt;h3&gt;SparkFun LEDs&lt;/h3&gt;
This library contains discrete LEDs for illumination or indication, but no displays.
&lt;br&gt;
&lt;br&gt;
We've spent an enormous amount of time creating and checking these footprints and parts, but it is &lt;b&gt; the end user's responsibility&lt;/b&gt; to ensure correctness and suitablity for a given componet or application. 
&lt;br&gt;
&lt;br&gt;If you enjoy using this library, please buy one of our products at &lt;a href=" www.sparkfun.com"&gt;SparkFun.com&lt;/a&gt;.
&lt;br&gt;
&lt;br&gt;
&lt;b&gt;Licensing:&lt;/b&gt; Creative Commons ShareAlike 4.0 International - https://creativecommons.org/licenses/by-sa/4.0/ 
&lt;br&gt;
&lt;br&gt;
You are welcome to use this library for commercial purposes. For attribution, we ask that when you begin to sell your device using our footprint, you email us with a link to the product being sold. We want bragging rights that we helped (in a very small part) to create your 8th world wonder. We would like the opportunity to feature your device on our homepage.</description>
<packages>
<package name="WS2812B-PTH-KIT">
<wire x1="-3.175" y1="2.8575" x2="-3.175" y2="1.4605" width="0.254" layer="21"/>
<wire x1="-3.175" y1="1.4605" x2="-3.175" y2="-2.159" width="0.254" layer="21"/>
<wire x1="-3.175" y1="2.8575" x2="-3.175" y2="-2.159" width="0.254" layer="21" curve="-288.461981"/>
<wire x1="-3.175" y1="1.4605" x2="-3.1115" y2="-0.8255" width="0.254" layer="21" curve="-323.123915"/>
<wire x1="-0.889" y1="1.3335" x2="-0.381" y2="1.3335" width="0.127" layer="21"/>
<pad name="1" x="2.413" y="0.0794" drill="0.762" diameter="1.27" shape="offset" rot="R270" stop="no"/>
<pad name="2" x="0.889" y="0.6509" drill="0.762" diameter="1.27" shape="offset" rot="R90" stop="no"/>
<pad name="3" x="-0.635" y="0.0794" drill="0.762" diameter="1.27" shape="offset" rot="R270" stop="no"/>
<pad name="4" x="-2.159" y="0.6509" drill="0.762" diameter="1.27" shape="offset" rot="R90" stop="no"/>
<text x="0.5842" y="-1.0922" size="0.8128" layer="21">+</text>
<polygon width="0.2032" layer="30">
<vertex x="-2.7686" y="0.6604"/>
<vertex x="-2.7686" y="1.9558" curve="-90"/>
<vertex x="-2.2098" y="2.5146"/>
<vertex x="-2.159" y="2.5146" curve="-90"/>
<vertex x="-1.5494" y="1.905"/>
<vertex x="-1.5494" y="0.6604" curve="-90"/>
<vertex x="-2.159" y="0.0508" curve="-90"/>
</polygon>
<polygon width="0.2032" layer="30">
<vertex x="-1.2446" y="-1.1938"/>
<vertex x="-1.2446" y="0.1016" curve="-90"/>
<vertex x="-0.6858" y="0.6604"/>
<vertex x="-0.635" y="0.6604" curve="-90"/>
<vertex x="-0.0254" y="0.0508"/>
<vertex x="-0.0254" y="-1.1938" curve="-90"/>
<vertex x="-0.635" y="-1.8034" curve="-90"/>
</polygon>
<polygon width="0.2032" layer="30">
<vertex x="0.2794" y="0.6604"/>
<vertex x="0.2794" y="1.9558" curve="-90"/>
<vertex x="0.8382" y="2.5146"/>
<vertex x="0.889" y="2.5146" curve="-90"/>
<vertex x="1.4986" y="1.905"/>
<vertex x="1.4986" y="0.6604" curve="-90"/>
<vertex x="0.889" y="0.0508" curve="-90"/>
</polygon>
<polygon width="0.2032" layer="30">
<vertex x="1.8034" y="-1.1684"/>
<vertex x="1.8034" y="0.127" curve="-90"/>
<vertex x="2.3622" y="0.6858"/>
<vertex x="2.413" y="0.6858" curve="-90"/>
<vertex x="3.0226" y="0.0762"/>
<vertex x="3.0226" y="-1.1684" curve="-90"/>
<vertex x="2.413" y="-1.778" curve="-90"/>
</polygon>
<polygon width="0.127" layer="29">
<vertex x="-2.159" y="0.1905" curve="-90.012891"/>
<vertex x="-2.6035" y="0.6147" curve="-90"/>
<vertex x="-2.159" y="1.082" curve="-90"/>
<vertex x="-1.7171" y="0.6249" curve="-90.012967"/>
</polygon>
<polygon width="0.127" layer="29">
<vertex x="0.889" y="0.1905" curve="-90.012891"/>
<vertex x="0.4445" y="0.6147" curve="-90"/>
<vertex x="0.889" y="1.082" curve="-90"/>
<vertex x="1.3309" y="0.6249" curve="-90.012967"/>
</polygon>
<polygon width="0.127" layer="29">
<vertex x="-0.635" y="-0.381" curve="-90.012891"/>
<vertex x="-1.0795" y="0.0432" curve="-90"/>
<vertex x="-0.635" y="0.5105" curve="-90"/>
<vertex x="-0.1931" y="0.0534" curve="-90.012967"/>
</polygon>
<polygon width="0.127" layer="29">
<vertex x="2.413" y="-0.381" curve="-90.012891"/>
<vertex x="1.9685" y="0.0432" curve="-90"/>
<vertex x="2.413" y="0.5105" curve="-90"/>
<vertex x="2.8549" y="0.0534" curve="-90.012967"/>
</polygon>
<text x="0" y="5.334" size="0.6096" layer="25" font="vector" ratio="20" align="bottom-center">&gt;NAME</text>
<text x="0" y="-4.445" size="0.6096" layer="27" font="vector" ratio="20" align="top-center">&gt;VALUE</text>
</package>
</packages>
</library>
<library name="SparkFun-Electromechanical">
<description>&lt;h3&gt;SparkFun Electromechanical Parts&lt;/h3&gt;
This library contains electromechanical devices, like motors, speakers,servos, and relays.
&lt;br&gt;
&lt;br&gt;
We've spent an enormous amount of time creating and checking these footprints and parts, but it is &lt;b&gt; the end user's responsibility&lt;/b&gt; to ensure correctness and suitablity for a given componet or application. 
&lt;br&gt;
&lt;br&gt;If you enjoy using this library, please buy one of our products at &lt;a href=" www.sparkfun.com"&gt;SparkFun.com&lt;/a&gt;.
&lt;br&gt;
&lt;br&gt;
&lt;b&gt;Licensing:&lt;/b&gt; Creative Commons ShareAlike 4.0 International - https://creativecommons.org/licenses/by-sa/4.0/ 
&lt;br&gt;
&lt;br&gt;
You are welcome to use this library for commercial purposes. For attribution, we ask that when you begin to sell your device using our footprint, you email us with a link to the product being sold. We want bragging rights that we helped (in a very small part) to create your 8th world wonder. We would like the opportunity to feature your device on our homepage.</description>
<packages>
<package name="BUZZER-12MM-KIT">
<description>&lt;h3&gt;12mm Buzzer - PTH (KIT VARIANT)&lt;/h3&gt;
&lt;p&gt;This is a small 12mm round speaker that operates around the audible 2kHz range. You can use these speakers to create simple music or user interfaces.&lt;/p&gt;
&lt;p&gt;&lt;b&gt;Warning:&lt;/b&gt; This is the KIT version of this package. This package has a smaller diameter top stop mask, which doesn't cover the diameter of the pad. This means only the bottom side of the pads' copper will be exposed. You'll only be able to solder to the bottom side.&lt;/p&gt;
&lt;p&gt;&lt;a href="http://cdn.sparkfun.com/datasheets/Components/General/cem-1203-42-.pdf"&gt;Datasheet&lt;/a&gt;&lt;/p&gt;
&lt;h4&gt;Devices Using&lt;/h4&gt;
&lt;ul&gt;&lt;li&gt;BUZZER&lt;/li&gt;&lt;/ul&gt;</description>
<circle x="0" y="0" radius="5.9" width="0.2032" layer="21"/>
<circle x="0" y="0" radius="1.27" width="0.2032" layer="51"/>
<pad name="-" x="-3.25" y="0" drill="0.9" diameter="1.8796" stop="no"/>
<pad name="+" x="3.25" y="0" drill="0.9" diameter="1.8796" stop="no"/>
<text x="2.667" y="1.143" size="1.778" layer="51">+</text>
<polygon width="0.127" layer="30">
<vertex x="3.2537" y="-0.9525" curve="-90"/>
<vertex x="2.2988" y="-0.0228" curve="-90.011749"/>
<vertex x="3.2512" y="0.9526" curve="-90"/>
<vertex x="4.2012" y="-0.0254" curve="-90.024193"/>
</polygon>
<polygon width="0.127" layer="29">
<vertex x="3.2512" y="-0.4445" curve="-90.012891"/>
<vertex x="2.8067" y="-0.0203" curve="-90"/>
<vertex x="3.2512" y="0.447" curve="-90"/>
<vertex x="3.6931" y="-0.0101" curve="-90.012967"/>
</polygon>
<polygon width="0.127" layer="30">
<vertex x="-3.2487" y="-0.9525" curve="-90"/>
<vertex x="-4.2036" y="-0.0228" curve="-90.011749"/>
<vertex x="-3.2512" y="0.9526" curve="-90"/>
<vertex x="-2.3012" y="-0.0254" curve="-90.024193"/>
</polygon>
<polygon width="0.127" layer="29">
<vertex x="-3.2512" y="-0.4445" curve="-90.012891"/>
<vertex x="-3.6957" y="-0.0203" curve="-90"/>
<vertex x="-3.2512" y="0.447" curve="-90"/>
<vertex x="-2.8093" y="-0.0101" curve="-90.012967"/>
</polygon>
<text x="0" y="6.096" size="0.6096" layer="25" font="vector" ratio="20" align="bottom-center">&gt;NAME</text>
<text x="0" y="5.588" size="0.6096" layer="27" font="vector" ratio="20" align="top-center">&gt;VALUE</text>
</package>
</packages>
</library>
<library name="SparkFun-Resistors">
<description>&lt;h3&gt;SparkFun Resistors&lt;/h3&gt;
This library contains resistors. Reference designator:R. 
&lt;br&gt;
&lt;br&gt;
We've spent an enormous amount of time creating and checking these footprints and parts, but it is &lt;b&gt; the end user's responsibility&lt;/b&gt; to ensure correctness and suitablity for a given componet or application. 
&lt;br&gt;
&lt;br&gt;If you enjoy using this library, please buy one of our products at &lt;a href=" www.sparkfun.com"&gt;SparkFun.com&lt;/a&gt;.
&lt;br&gt;
&lt;br&gt;
&lt;b&gt;Licensing:&lt;/b&gt; Creative Commons ShareAlike 4.0 International - https://creativecommons.org/licenses/by-sa/4.0/ 
&lt;br&gt;
&lt;br&gt;
You are welcome to use this library for commercial purposes. For attribution, we ask that when you begin to sell your device using our footprint, you email us with a link to the product being sold. We want bragging rights that we helped (in a very small part) to create your 8th world wonder. We would like the opportunity to feature your device on our homepage.</description>
<packages>
<package name="0805">
<description>&lt;p&gt;&lt;b&gt;Generic 2012 (0805) package&lt;/b&gt;&lt;/p&gt;
&lt;p&gt;0.2mm courtyard excess rounded to nearest 0.05mm.&lt;/p&gt;</description>
<smd name="1" x="-0.9" y="0" dx="0.8" dy="1.2" layer="1"/>
<smd name="2" x="0.9" y="0" dx="0.8" dy="1.2" layer="1"/>
<text x="0" y="0.889" size="0.6096" layer="25" font="vector" ratio="20" align="bottom-center">&gt;NAME</text>
<text x="0" y="-0.889" size="0.6096" layer="27" font="vector" ratio="20" align="top-center">&gt;VALUE</text>
<wire x1="-1.5" y1="0.8" x2="1.5" y2="0.8" width="0.0508" layer="39"/>
<wire x1="1.5" y1="0.8" x2="1.5" y2="-0.8" width="0.0508" layer="39"/>
<wire x1="1.5" y1="-0.8" x2="-1.5" y2="-0.8" width="0.0508" layer="39"/>
<wire x1="-1.5" y1="-0.8" x2="-1.5" y2="0.8" width="0.0508" layer="39"/>
</package>
</packages>
</library>
<library name="SparkFun-Connectors">
<description>&lt;h3&gt;SparkFun Connectors&lt;/h3&gt;
This library contains electrically-functional connectors. 
&lt;br&gt;
&lt;br&gt;
We've spent an enormous amount of time creating and checking these footprints and parts, but it is &lt;b&gt; the end user's responsibility&lt;/b&gt; to ensure correctness and suitablity for a given componet or application. 
&lt;br&gt;
&lt;br&gt;If you enjoy using this library, please buy one of our products at &lt;a href=" www.sparkfun.com"&gt;SparkFun.com&lt;/a&gt;.
&lt;br&gt;
&lt;br&gt;
&lt;b&gt;Licensing:&lt;/b&gt; Creative Commons ShareAlike 4.0 International - https://creativecommons.org/licenses/by-sa/4.0/ 
&lt;br&gt;
&lt;br&gt;
You are welcome to use this library for commercial purposes. For attribution, we ask that when you begin to sell your device using our footprint, you email us with a link to the product being sold. We want bragging rights that we helped (in a very small part) to create your 8th world wonder. We would like the opportunity to feature your device on our homepage.</description>
<packages>
<package name="JST-2-PTH-KIT">
<description>&lt;h3&gt;JST 2 Pin Right Angle Plated Through  Hole - KIT&lt;/h3&gt;
tDocu indicate polarity for connections that match SparkFun LiPo battery terminations. 
&lt;br&gt; This package has a smaller diameter top stop mask, which doesn't cover the diameter of the pad.
&lt;br&gt; This means only the bottom side of the pads' copper will be exposed. You'll only be able to solder to the bottom side.
&lt;p&gt;Specifications:
&lt;ul&gt;&lt;li&gt;Pin count: 2&lt;/li&gt;
&lt;li&gt;Pin pitch:2mm&lt;/li&gt;
&lt;/ul&gt;&lt;/p&gt;
&lt;p&gt;&lt;a href=”https://www.sparkfun.com/datasheets/Prototyping/Connectors/JST%282%29-01548.pdf”&gt;Datasheet referenced for footprint&lt;/a&gt;&lt;/p&gt;
&lt;p&gt;Example device(s):
&lt;ul&gt;&lt;li&gt;CONN_02&lt;/li&gt;
&lt;/ul&gt;&lt;/p&gt;</description>
<wire x1="-2" y1="0" x2="-2" y2="-1.8" width="0.2032" layer="51"/>
<wire x1="-2" y1="-1.8" x2="-3" y2="-1.8" width="0.2032" layer="51"/>
<wire x1="-3" y1="-1.8" x2="-3" y2="6" width="0.2032" layer="51"/>
<wire x1="-3" y1="6" x2="3" y2="6" width="0.2032" layer="51"/>
<wire x1="3" y1="6" x2="3" y2="-1.8" width="0.2032" layer="51"/>
<wire x1="3" y1="-1.8" x2="2" y2="-1.8" width="0.2032" layer="51"/>
<wire x1="2" y1="-1.8" x2="2" y2="0" width="0.2032" layer="51"/>
<pad name="1" x="-1" y="0" drill="0.7" diameter="1.4478" stop="no"/>
<pad name="2" x="1" y="0" drill="0.7" diameter="1.4478" stop="no"/>
<text x="-1.27" y="5.27" size="0.6096" layer="25" font="vector" ratio="20">&gt;Name</text>
<text x="-1.27" y="4" size="0.6096" layer="27" font="vector" ratio="20">&gt;Value</text>
<text x="0.6" y="0.7" size="1.27" layer="51">+</text>
<text x="-1.4" y="0.7" size="1.27" layer="51">-</text>
<polygon width="0.127" layer="30">
<vertex x="-0.9975" y="-0.6604" curve="-90.025935"/>
<vertex x="-1.6604" y="0" curve="-90.017354"/>
<vertex x="-1" y="0.6604" curve="-90"/>
<vertex x="-0.3396" y="0" curve="-90.078137"/>
</polygon>
<polygon width="0.127" layer="29">
<vertex x="-1" y="-0.2865" curve="-90.08005"/>
<vertex x="-1.2865" y="0" curve="-90.040011"/>
<vertex x="-1" y="0.2865" curve="-90"/>
<vertex x="-0.7135" y="0" curve="-90"/>
</polygon>
<polygon width="0.127" layer="30">
<vertex x="1.0025" y="-0.6604" curve="-90.025935"/>
<vertex x="0.3396" y="0" curve="-90.017354"/>
<vertex x="1" y="0.6604" curve="-90"/>
<vertex x="1.6604" y="0" curve="-90.078137"/>
</polygon>
<polygon width="0.127" layer="29">
<vertex x="1" y="-0.2865" curve="-90.08005"/>
<vertex x="0.7135" y="0" curve="-90.040011"/>
<vertex x="1" y="0.2865" curve="-90"/>
<vertex x="1.2865" y="0" curve="-90"/>
</polygon>
</package>
</packages>
</library>
</libraries>
<attributes>
</attributes>
<variantdefs>
</variantdefs>
<classes>
<class number="0" name="default" width="0" drill="0">
</class>
</classes>
<designrules name="default">
<description language="de">&lt;b&gt;EAGLE Design Rules&lt;/b&gt;
&lt;p&gt;
Die Standard-Design-Rules sind so gewählt, dass sie für 
die meisten Anwendungen passen. Sollte ihre Platine 
besondere Anforderungen haben, treffen Sie die erforderlichen
Einstellungen hier und speichern die Design Rules unter 
einem neuen Namen ab.</description>
<description language="en">&lt;b&gt;EAGLE Design Rules&lt;/b&gt;
&lt;p&gt;
The default Design Rules have been set to cover
a wide range of applications. Your particular design
may have different requirements, so please make the
necessary adjustments and save your customized
design rules under a new name.</description>
<param name="layerSetup" value="(1*16)"/>
<param name="mtCopper" value="0.035mm 0.035mm 0.035mm 0.035mm 0.035mm 0.035mm 0.035mm 0.035mm 0.035mm 0.035mm 0.035mm 0.035mm 0.035mm 0.035mm 0.035mm 0.035mm"/>
<param name="mtIsolate" value="1.5mm 0.15mm 0.2mm 0.15mm 0.2mm 0.15mm 0.2mm 0.15mm 0.2mm 0.15mm 0.2mm 0.15mm 0.2mm 0.15mm 0.2mm"/>
<param name="mdWireWire" value="8mil"/>
<param name="mdWirePad" value="8mil"/>
<param name="mdWireVia" value="8mil"/>
<param name="mdPadPad" value="8mil"/>
<param name="mdPadVia" value="8mil"/>
<param name="mdViaVia" value="8mil"/>
<param name="mdSmdPad" value="8mil"/>
<param name="mdSmdVia" value="8mil"/>
<param name="mdSmdSmd" value="8mil"/>
<param name="mdViaViaSameLayer" value="8mil"/>
<param name="mnLayersViaInSmd" value="2"/>
<param name="mdCopperDimension" value="40mil"/>
<param name="mdDrill" value="8mil"/>
<param name="mdSmdStop" value="0mil"/>
<param name="msWidth" value="10mil"/>
<param name="msDrill" value="24mil"/>
<param name="msMicroVia" value="9.99mm"/>
<param name="msBlindViaRatio" value="0.5"/>
<param name="rvPadTop" value="0.25"/>
<param name="rvPadInner" value="0.25"/>
<param name="rvPadBottom" value="0.25"/>
<param name="rvViaOuter" value="0.25"/>
<param name="rvViaInner" value="0.25"/>
<param name="rvMicroViaOuter" value="0.25"/>
<param name="rvMicroViaInner" value="0.25"/>
<param name="rlMinPadTop" value="10mil"/>
<param name="rlMaxPadTop" value="20mil"/>
<param name="rlMinPadInner" value="10mil"/>
<param name="rlMaxPadInner" value="20mil"/>
<param name="rlMinPadBottom" value="10mil"/>
<param name="rlMaxPadBottom" value="20mil"/>
<param name="rlMinViaOuter" value="8mil"/>
<param name="rlMaxViaOuter" value="20mil"/>
<param name="rlMinViaInner" value="8mil"/>
<param name="rlMaxViaInner" value="20mil"/>
<param name="rlMinMicroViaOuter" value="4mil"/>
<param name="rlMaxMicroViaOuter" value="20mil"/>
<param name="rlMinMicroViaInner" value="4mil"/>
<param name="rlMaxMicroViaInner" value="20mil"/>
<param name="psTop" value="-1"/>
<param name="psBottom" value="-1"/>
<param name="psFirst" value="-1"/>
<param name="psElongationLong" value="100"/>
<param name="psElongationOffset" value="100"/>
<param name="mvStopFrame" value="1"/>
<param name="mvCreamFrame" value="0"/>
<param name="mlMinStopFrame" value="4mil"/>
<param name="mlMaxStopFrame" value="4mil"/>
<param name="mlMinCreamFrame" value="0mil"/>
<param name="mlMaxCreamFrame" value="0mil"/>
<param name="mlViaStopLimit" value="0mil"/>
<param name="srRoundness" value="0"/>
<param name="srMinRoundness" value="0mil"/>
<param name="srMaxRoundness" value="0mil"/>
<param name="slThermalIsolate" value="10mil"/>
<param name="slThermalsForVias" value="0"/>
<param name="dpMaxLengthDifference" value="10mm"/>
<param name="dpGapFactor" value="2.5"/>
<param name="checkGrid" value="0"/>
<param name="checkAngle" value="0"/>
<param name="checkFont" value="1"/>
<param name="checkRestrict" value="1"/>
<param name="useDiameter" value="13"/>
<param name="maxErrors" value="50"/>
</designrules>
<autorouter>
<pass name="Default">
<param name="RoutingGrid" value="50mil"/>
<param name="AutoGrid" value="1"/>
<param name="Efforts" value="0"/>
<param name="TopRouterVariant" value="1"/>
<param name="tpViaShape" value="round"/>
<param name="PrefDir.1" value="a"/>
<param name="PrefDir.2" value="0"/>
<param name="PrefDir.3" value="0"/>
<param name="PrefDir.4" value="0"/>
<param name="PrefDir.5" value="0"/>
<param name="PrefDir.6" value="0"/>
<param name="PrefDir.7" value="0"/>
<param name="PrefDir.8" value="0"/>
<param name="PrefDir.9" value="0"/>
<param name="PrefDir.10" value="0"/>
<param name="PrefDir.11" value="0"/>
<param name="PrefDir.12" value="0"/>
<param name="PrefDir.13" value="0"/>
<param name="PrefDir.14" value="0"/>
<param name="PrefDir.15" value="0"/>
<param name="PrefDir.16" value="a"/>
<param name="cfVia" value="8"/>
<param name="cfNonPref" value="5"/>
<param name="cfChangeDir" value="2"/>
<param name="cfOrthStep" value="2"/>
<param name="cfDiagStep" value="3"/>
<param name="cfExtdStep" value="0"/>
<param name="cfBonusStep" value="1"/>
<param name="cfMalusStep" value="1"/>
<param name="cfPadImpact" value="4"/>
<param name="cfSmdImpact" value="4"/>
<param name="cfBusImpact" value="0"/>
<param name="cfHugging" value="3"/>
<param name="cfAvoid" value="4"/>
<param name="cfPolygon" value="10"/>
<param name="cfBase.1" value="0"/>
<param name="cfBase.2" value="1"/>
<param name="cfBase.3" value="1"/>
<param name="cfBase.4" value="1"/>
<param name="cfBase.5" value="1"/>
<param name="cfBase.6" value="1"/>
<param name="cfBase.7" value="1"/>
<param name="cfBase.8" value="1"/>
<param name="cfBase.9" value="1"/>
<param name="cfBase.10" value="1"/>
<param name="cfBase.11" value="1"/>
<param name="cfBase.12" value="1"/>
<param name="cfBase.13" value="1"/>
<param name="cfBase.14" value="1"/>
<param name="cfBase.15" value="1"/>
<param name="cfBase.16" value="0"/>
<param name="mnVias" value="20"/>
<param name="mnSegments" value="9999"/>
<param name="mnExtdSteps" value="9999"/>
<param name="mnRipupLevel" value="10"/>
<param name="mnRipupSteps" value="100"/>
<param name="mnRipupTotal" value="100"/>
</pass>
<pass name="Follow-me" refer="Default" active="yes">
</pass>
<pass name="Busses" refer="Default" active="yes">
<param name="cfNonPref" value="4"/>
<param name="cfBusImpact" value="4"/>
<param name="cfHugging" value="0"/>
<param name="mnVias" value="0"/>
</pass>
<pass name="Route" refer="Default" active="yes">
</pass>
<pass name="Optimize1" refer="Default" active="yes">
<param name="cfVia" value="99"/>
<param name="cfExtdStep" value="10"/>
<param name="cfHugging" value="1"/>
<param name="mnExtdSteps" value="1"/>
<param name="mnRipupLevel" value="0"/>
</pass>
<pass name="Optimize2" refer="Optimize1" active="yes">
<param name="cfNonPref" value="0"/>
<param name="cfChangeDir" value="6"/>
<param name="cfExtdStep" value="0"/>
<param name="cfBonusStep" value="2"/>
<param name="cfMalusStep" value="2"/>
<param name="cfPadImpact" value="2"/>
<param name="cfSmdImpact" value="2"/>
<param name="cfHugging" value="0"/>
</pass>
<pass name="Optimize3" refer="Optimize2" active="yes">
<param name="cfChangeDir" value="8"/>
<param name="cfPadImpact" value="0"/>
<param name="cfSmdImpact" value="0"/>
</pass>
<pass name="Optimize4" refer="Optimize3" active="yes">
<param name="cfChangeDir" value="25"/>
</pass>
</autorouter>
<elements>
<element name="MOD1" library="easy_access" package="RFID-RC522" value="RFID-RC522" x="20.066" y="43.942"/>
<element name="U$1" library="Teensy_3_and_LC_Series_Boards_v1.4" package="TEENSY_3.0-3.2&amp;LC_OUTER_ROW" value="TEENSY_LC_OUTER_ROW" x="18.796" y="16.002" rot="R90"/>
<element name="U$2" library="easy_access" package="RPI-802.15.4" value="RPI-802.15.4" x="64.516" y="16.256" rot="R270"/>
<element name="U$3" library="SparkFun-LED" package="WS2812B-PTH-KIT" value="WS2812B-PTH" x="41.91" y="10.414" rot="R90"/>
<element name="LS1" library="SparkFun-Electromechanical" package="BUZZER-12MM-KIT" value="BUZZER-PTH_KIT" x="42.926" y="21.59" rot="R90">
<attribute name="SF_SKU" value="COM-07950" x="42.926" y="21.59" size="1.778" layer="27" rot="R90" display="off"/>
<attribute name="PROD_ID" value="COMP-08253" x="42.926" y="21.59" size="1.778" layer="27" rot="R90" display="off"/>
</element>
<element name="R1" library="SparkFun-Resistors" package="0805" value=" " x="55.372" y="12.7" rot="MR315">
<attribute name="PROD_ID" value=" " x="55.372" y="12.7" size="1.778" layer="28" rot="MR315" display="off"/>
</element>
<element name="R2" library="SparkFun-Resistors" package="0805" value=" " x="14.478" y="19.304" rot="MR45">
<attribute name="PROD_ID" value=" " x="14.478" y="19.304" size="1.778" layer="28" rot="MR45" display="off"/>
</element>
<element name="J1" library="SparkFun-Connectors" package="JST-2-PTH-KIT" value="" x="56.388" y="27.686"/>
<element name="R3" library="SparkFun-Resistors" package="0805" value=" " x="26.416" y="20.32" rot="MR270">
<attribute name="PROD_ID" value=" " x="22.352" y="24.13" size="1.778" layer="28" rot="MR270" display="off"/>
</element>
<element name="U$4" library="easy_access" package="SOD123" value="1N5819HW-7-F" x="49.53" y="29.21" rot="MR180"/>
</elements>
<signals>
<signal name="GND">
<contactref element="U$1" pad="GND"/>
<contactref element="U$1" pad="AGND"/>
<contactref element="U$1" pad="GND1"/>
<contactref element="U$3" pad="2"/>
<contactref element="LS1" pad="-"/>
<contactref element="U$2" pad="P11"/>
<contactref element="U$2" pad="P6"/>
<contactref element="MOD1" pad="P6"/>
<wire x1="41.2591" y1="11.303" x2="39.497" y2="11.303" width="0.508" layer="16"/>
<wire x1="39.497" y1="11.303" x2="38.1" y2="12.7" width="0.508" layer="16"/>
<wire x1="38.1" y1="12.7" x2="38.1" y2="14.732" width="0.508" layer="16"/>
<wire x1="38.1" y1="14.732" x2="36.83" y2="16.002" width="0.508" layer="16"/>
<wire x1="36.83" y1="16.002" x2="35.306" y2="16.002" width="0.508" layer="16"/>
<wire x1="42.926" y1="18.34" x2="39.168" y2="18.34" width="0.508" layer="16"/>
<wire x1="39.168" y1="18.34" x2="36.83" y2="16.002" width="0.508" layer="16"/>
<contactref element="R2" pad="1"/>
<contactref element="R2" pad="2"/>
<wire x1="53.326" y1="21.226" x2="53.326" y2="22.112" width="0.508" layer="16"/>
<wire x1="53.326" y1="22.112" x2="52.578" y2="22.86" width="0.508" layer="16"/>
<wire x1="52.578" y1="22.86" x2="47.446" y2="22.86" width="0.508" layer="16"/>
<wire x1="47.446" y1="22.86" x2="42.926" y2="18.34" width="0.508" layer="16"/>
<wire x1="23.876" y1="15.212" x2="23.876" y2="17.526" width="0.508" layer="16"/>
<wire x1="23.876" y1="17.526" x2="22.86" y2="18.542" width="0.508" layer="16"/>
<wire x1="22.86" y1="18.542" x2="15.24" y2="18.542" width="0.508" layer="16"/>
<wire x1="15.24" y1="18.542" x2="15.114396875" y2="18.667603125" width="0.508" layer="16"/>
<wire x1="2.286" y1="8.382" x2="8.89" y2="1.778" width="0.508" layer="16"/>
<wire x1="8.89" y1="1.778" x2="52.324" y2="1.778" width="0.508" layer="16"/>
<contactref element="J1" pad="1"/>
<wire x1="52.324" y1="1.778" x2="57.912" y2="7.366" width="0.508" layer="16"/>
<wire x1="57.912" y1="7.366" x2="57.912" y2="25.146" width="0.508" layer="16"/>
<wire x1="57.912" y1="25.146" x2="55.388" y2="27.67" width="0.508" layer="16"/>
<wire x1="55.388" y1="27.67" x2="55.388" y2="27.686" width="0.508" layer="16"/>
<wire x1="2.286" y1="8.382" x2="4.064" y2="10.16" width="0.508" layer="16"/>
<wire x1="4.064" y1="10.16" x2="8.128" y2="10.16" width="0.508" layer="16"/>
<wire x1="8.128" y1="10.16" x2="9.652" y2="11.684" width="0.508" layer="16"/>
<wire x1="9.652" y1="11.684" x2="9.652" y2="20.574" width="0.508" layer="16"/>
<wire x1="9.652" y1="20.574" x2="8.382" y2="21.844" width="0.508" layer="16"/>
<wire x1="8.382" y1="21.844" x2="5.842" y2="21.844" width="0.508" layer="16"/>
<wire x1="5.842" y1="21.844" x2="4.826" y2="22.86" width="0.508" layer="16"/>
<wire x1="4.826" y1="22.86" x2="4.826" y2="23.622" width="0.508" layer="16"/>
<wire x1="13.84160625" y1="19.94039375" x2="11.938" y2="21.844" width="0.508" layer="16"/>
<wire x1="11.938" y1="21.844" x2="8.382" y2="21.844" width="0.508" layer="16"/>
<polygon width="0.508" layer="16" isolate="0.6096">
<vertex x="0" y="0"/>
<vertex x="0" y="30.48"/>
<vertex x="59.69" y="30.48"/>
<vertex x="59.69" y="0"/>
</polygon>
<wire x1="13.84160625" y1="19.94039375" x2="15.114396875" y2="18.667603125" width="0" layer="19" extent="16-16"/>
<wire x1="53.326" y1="22.112" x2="57.912" y2="25.146" width="0" layer="19" extent="16-16"/>
<wire x1="50.786" y1="13.606" x2="53.326" y2="21.226" width="0" layer="19" extent="1-1"/>
</signal>
<signal name="3V3">
<contactref element="U$1" pad="3.3V"/>
<contactref element="U$1" pad="3.3V1"/>
<contactref element="U$2" pad="P3"/>
<contactref element="MOD1" pad="P8"/>
<contactref element="R1" pad="2"/>
<contactref element="R1" pad="1"/>
<wire x1="53.326" y1="11.066" x2="53.738003125" y2="11.066" width="0.508" layer="16"/>
<wire x1="53.738003125" y1="11.066" x2="54.73560625" y2="12.063603125" width="0.508" layer="16"/>
<wire x1="35.306" y1="13.462" x2="34.29" y2="13.462" width="0.508" layer="16"/>
<wire x1="34.29" y1="13.462" x2="30.48" y2="17.272" width="0.508" layer="16"/>
<wire x1="30.48" y1="17.272" x2="29.464" y2="17.272" width="0.508" layer="16"/>
<wire x1="29.464" y1="17.272" x2="28.956" y2="16.764" width="0.508" layer="16"/>
<wire x1="28.956" y1="16.764" x2="28.956" y2="15.212" width="0.508" layer="16"/>
<wire x1="56.008396875" y1="13.33639375" x2="56.008396875" y2="24.509603125" width="0.508" layer="16"/>
<wire x1="56.008396875" y1="24.509603125" x2="52.832" y2="27.686" width="0.508" layer="16"/>
<wire x1="52.832" y1="27.686" x2="18.796" y2="27.686" width="0.508" layer="16"/>
<wire x1="18.796" y1="27.686" x2="16.764" y2="25.654" width="0.508" layer="16"/>
<wire x1="16.764" y1="25.654" x2="9.398" y2="25.654" width="0.508" layer="16"/>
<wire x1="9.398" y1="25.654" x2="7.366" y2="23.622" width="0.508" layer="16"/>
<wire x1="56.008396875" y1="13.33639375" x2="54.73560625" y2="12.063603125" width="0" layer="19" extent="16-16"/>
<wire x1="29.464" y1="17.272" x2="18.796" y2="27.686" width="0" layer="19" extent="16-16"/>
</signal>
<signal name="26/A12/DAC">
<contactref element="U$1" pad="RESET/DAC"/>
</signal>
<signal name="VBATT">
<contactref element="U$1" pad="VIN"/>
<contactref element="U$3" pad="3"/>
<wire x1="41.8306" y1="9.779" x2="43.307" y2="9.779" width="0.508" layer="16"/>
<wire x1="43.307" y1="9.779" x2="44.704" y2="11.176" width="0.508" layer="16"/>
<via x="44.704" y="11.176" extent="1-16" drill="0.8"/>
<wire x1="44.704" y1="11.176" x2="44.704" y2="28.956" width="0.508" layer="1"/>
<via x="44.704" y="28.956" extent="1-16" drill="0.8"/>
<wire x1="44.704" y1="28.956" x2="44.45" y2="28.702" width="0.508" layer="16"/>
<wire x1="44.45" y1="28.702" x2="18.288" y2="28.702" width="0.508" layer="16"/>
<wire x1="18.288" y1="28.702" x2="16.256" y2="26.67" width="0.508" layer="16"/>
<wire x1="16.256" y1="26.67" x2="4.572" y2="26.67" width="0.508" layer="16"/>
<wire x1="4.572" y1="26.67" x2="2.286" y2="24.384" width="0.508" layer="16"/>
<wire x1="2.286" y1="24.384" x2="2.286" y2="23.622" width="0.508" layer="16"/>
<contactref element="U$4" pad="1"/>
<wire x1="47.83" y1="29.21" x2="44.958" y2="29.21" width="0.508" layer="16"/>
<wire x1="44.958" y1="29.21" x2="44.704" y2="28.956" width="0.508" layer="16"/>
</signal>
<signal name="STATUS_LED">
<contactref element="U$1" pad="VBAT"/>
<contactref element="U$3" pad="4"/>
<wire x1="35.306" y1="10.922" x2="35.814" y2="10.922" width="0.508" layer="16"/>
<wire x1="35.814" y1="10.922" x2="38.608" y2="8.128" width="0.508" layer="16"/>
<wire x1="38.608" y1="8.128" x2="41.1321" y2="8.128" width="0.508" layer="16"/>
<wire x1="41.1321" y1="8.128" x2="41.2591" y2="8.255" width="0.508" layer="16"/>
</signal>
<signal name="BUZZER">
<contactref element="U$1" pad="18/A4"/>
<contactref element="LS1" pad="+"/>
<wire x1="42.926" y1="24.84" x2="42.112" y2="25.654" width="0.508" layer="16"/>
<wire x1="42.112" y1="25.654" x2="24.13" y2="25.654" width="0.508" layer="16"/>
<wire x1="24.13" y1="25.654" x2="22.606" y2="24.13" width="0.508" layer="16"/>
<wire x1="22.606" y1="24.13" x2="22.606" y2="23.622" width="0.508" layer="16"/>
</signal>
<signal name="RADIO_MOSI">
<contactref element="U$1" pad="0"/>
<contactref element="U$2" pad="P5"/>
<wire x1="53.326" y1="13.606" x2="54.466" y2="13.606" width="0.508" layer="16"/>
<wire x1="54.466" y1="13.606" x2="56.134" y2="11.938" width="0.3302" layer="16"/>
<wire x1="56.134" y1="11.938" x2="56.134" y2="6.858" width="0.508" layer="16"/>
<wire x1="56.134" y1="6.858" x2="52.07" y2="2.794" width="0.508" layer="16"/>
<wire x1="52.07" y1="2.794" x2="10.414" y2="2.794" width="0.508" layer="16"/>
<wire x1="10.414" y1="2.794" x2="4.826" y2="8.382" width="0.508" layer="16"/>
</signal>
<signal name="RADIO_MISO">
<contactref element="U$1" pad="1"/>
<contactref element="U$2" pad="P7"/>
<wire x1="53.326" y1="16.146" x2="53.23" y2="16.146" width="0.508" layer="16"/>
<wire x1="53.23" y1="16.146" x2="52.07" y2="14.986" width="0.508" layer="16"/>
<wire x1="52.07" y1="14.986" x2="52.07" y2="7.112" width="0.4064" layer="16"/>
<wire x1="50.8" y1="3.81" x2="11.938" y2="3.81" width="0.508" layer="16"/>
<wire x1="11.938" y1="3.81" x2="7.366" y2="8.382" width="0.508" layer="16"/>
<wire x1="52.07" y1="7.112" x2="52.07" y2="5.08" width="0.508" layer="16"/>
<wire x1="52.07" y1="5.08" x2="50.8" y2="3.81" width="0.508" layer="16"/>
</signal>
<signal name="RADIO_RST">
<contactref element="U$2" pad="P4"/>
<contactref element="U$1" pad="4"/>
<wire x1="14.986" y1="8.382" x2="14.986" y2="7.366" width="0.508" layer="16"/>
<wire x1="14.986" y1="7.366" x2="17.526" y2="4.826" width="0.508" layer="16"/>
<wire x1="17.526" y1="4.826" x2="45.72" y2="4.826" width="0.508" layer="16"/>
<wire x1="45.72" y1="4.826" x2="48.006" y2="7.112" width="0.508" layer="16"/>
<wire x1="48.006" y1="7.112" x2="48.006" y2="10.16" width="0.508" layer="16"/>
<wire x1="48.006" y1="10.16" x2="48.768" y2="10.922" width="0.508" layer="16"/>
<wire x1="48.768" y1="10.922" x2="50.642" y2="10.922" width="0.508" layer="16"/>
<wire x1="50.642" y1="10.922" x2="50.786" y2="11.066" width="0.508" layer="16"/>
</signal>
<signal name="SLP_TR">
<contactref element="U$2" pad="P8"/>
<contactref element="U$1" pad="5"/>
<wire x1="17.526" y1="8.382" x2="17.526" y2="8.128" width="0.508" layer="16"/>
<wire x1="17.526" y1="8.128" x2="19.812" y2="5.842" width="0.508" layer="16"/>
<wire x1="19.812" y1="5.842" x2="45.212" y2="5.842" width="0.508" layer="16"/>
<wire x1="45.212" y1="5.842" x2="47.244" y2="7.874" width="0.508" layer="16"/>
<wire x1="47.244" y1="7.874" x2="47.244" y2="14.986" width="0.508" layer="16"/>
<wire x1="47.244" y1="14.986" x2="48.514" y2="16.256" width="0.508" layer="16"/>
<wire x1="48.514" y1="16.256" x2="50.676" y2="16.256" width="0.508" layer="16"/>
<wire x1="50.676" y1="16.256" x2="50.786" y2="16.146" width="0.508" layer="16"/>
</signal>
<signal name="RADIO_SEL">
<contactref element="U$2" pad="P10"/>
<contactref element="U$1" pad="6"/>
<wire x1="20.066" y1="8.382" x2="20.066" y2="7.366" width="0.508" layer="16"/>
<wire x1="20.066" y1="7.366" x2="20.574" y2="6.858" width="0.508" layer="16"/>
<wire x1="20.574" y1="6.858" x2="44.704" y2="6.858" width="0.508" layer="16"/>
<wire x1="44.704" y1="6.858" x2="46.228" y2="8.382" width="0.508" layer="16"/>
<wire x1="46.228" y1="8.382" x2="46.228" y2="16.51" width="0.508" layer="16"/>
<wire x1="46.228" y1="16.51" x2="48.514" y2="18.796" width="0.508" layer="16"/>
<wire x1="48.514" y1="18.796" x2="50.676" y2="18.796" width="0.508" layer="16"/>
<wire x1="50.676" y1="18.796" x2="50.786" y2="18.686" width="0.508" layer="16"/>
</signal>
<signal name="RADIO_SCK">
<contactref element="U$1" pad="20/A6"/>
<contactref element="U$2" pad="P9"/>
<wire x1="53.326" y1="18.686" x2="53.484" y2="18.686" width="0.508" layer="16"/>
<wire x1="53.484" y1="18.686" x2="54.61" y2="19.812" width="0.508" layer="16"/>
<wire x1="54.61" y1="19.812" x2="54.61" y2="24.13" width="0.508" layer="16"/>
<wire x1="54.61" y1="24.13" x2="52.07" y2="26.67" width="0.508" layer="16"/>
<wire x1="52.07" y1="26.67" x2="20.574" y2="26.67" width="0.508" layer="16"/>
<wire x1="20.574" y1="26.67" x2="17.526" y2="23.622" width="0.508" layer="16"/>
</signal>
<signal name="NFC_RST">
<contactref element="MOD1" pad="P7"/>
<contactref element="U$1" pad="19/A5"/>
<contactref element="R3" pad="1"/>
<contactref element="R3" pad="2"/>
<wire x1="26.416" y1="16.626" x2="26.416" y2="15.748" width="0.508" layer="16"/>
<wire x1="26.416" y1="15.748" x2="26.416" y2="15.212" width="0.508" layer="16"/>
<wire x1="21.082" y1="21.59" x2="20.066" y2="22.606" width="0.508" layer="16"/>
<wire x1="20.066" y1="22.606" x2="20.066" y2="23.622" width="0.508" layer="16"/>
<wire x1="21.082" y1="21.59" x2="26.046" y2="21.59" width="0.508" layer="16"/>
<wire x1="26.046" y1="21.59" x2="26.416" y2="21.22" width="0.508" layer="16"/>
<wire x1="26.416" y1="19.42" x2="26.416" y2="16.626" width="0.508" layer="16"/>
<wire x1="26.416" y1="21.22" x2="26.416" y2="19.42" width="0" layer="19" extent="16-16"/>
</signal>
<signal name="NFC_MISO">
<contactref element="MOD1" pad="P4"/>
<contactref element="U$1" pad="12"/>
<wire x1="18.796" y1="15.212" x2="18.796" y2="13.462" width="0.508" layer="16"/>
<wire x1="18.796" y1="13.462" x2="20.066" y2="12.192" width="0.508" layer="16"/>
<wire x1="20.066" y1="12.192" x2="31.496" y2="12.192" width="0.508" layer="16"/>
<wire x1="31.496" y1="12.192" x2="35.306" y2="8.382" width="0.508" layer="16"/>
</signal>
<signal name="NFC_MOSI">
<contactref element="MOD1" pad="P3"/>
<contactref element="U$1" pad="11"/>
<wire x1="16.256" y1="15.212" x2="16.256" y2="12.954" width="0.508" layer="16"/>
<wire x1="16.256" y1="12.954" x2="18.034" y2="11.176" width="0.508" layer="16"/>
<wire x1="18.034" y1="11.176" x2="29.972" y2="11.176" width="0.508" layer="16"/>
<wire x1="29.972" y1="11.176" x2="32.766" y2="8.382" width="0.508" layer="16"/>
</signal>
<signal name="NFC_SCK">
<contactref element="MOD1" pad="P2"/>
<contactref element="U$1" pad="14/A0"/>
<wire x1="13.716" y1="15.212" x2="13.716" y2="18.542" width="0.508" layer="16"/>
<wire x1="13.716" y1="18.542" x2="15.494" y2="20.32" width="0.3302" layer="16"/>
<wire x1="30.734" y1="20.32" x2="32.766" y2="22.606" width="0.508" layer="16"/>
<wire x1="32.766" y1="22.606" x2="32.766" y2="23.622" width="0.508" layer="16"/>
<wire x1="15.494" y1="20.32" x2="25.146" y2="20.32" width="0.508" layer="16"/>
<wire x1="30.734" y1="20.32" x2="27.432" y2="20.32" width="0.508" layer="16"/>
<wire x1="27.432" y1="20.32" x2="25.146" y2="20.32" width="0.3302" layer="16"/>
</signal>
<signal name="NFC_SEL">
<contactref element="MOD1" pad="P1"/>
<contactref element="U$1" pad="10"/>
<wire x1="11.176" y1="15.212" x2="11.176" y2="11.684" width="0.508" layer="16"/>
<wire x1="11.176" y1="11.684" x2="12.7" y2="10.16" width="0.508" layer="16"/>
<wire x1="12.7" y1="10.16" x2="28.448" y2="10.16" width="0.508" layer="16"/>
<wire x1="28.448" y1="10.16" x2="30.226" y2="8.382" width="0.508" layer="16"/>
</signal>
<signal name="VIN">
<contactref element="J1" pad="2"/>
<contactref element="U$4" pad="2"/>
<wire x1="51.23" y1="29.21" x2="53.086" y2="29.21" width="0.508" layer="16"/>
<wire x1="53.086" y1="29.21" x2="53.34" y2="29.464" width="0.508" layer="16"/>
<wire x1="53.34" y1="29.464" x2="56.642" y2="29.464" width="0.508" layer="16"/>
<wire x1="56.642" y1="29.464" x2="57.404" y2="28.702" width="0.508" layer="16"/>
<wire x1="57.404" y1="28.702" x2="57.404" y2="27.702" width="0.508" layer="16"/>
<wire x1="57.404" y1="27.702" x2="57.388" y2="27.686" width="0.508" layer="16"/>
</signal>
</signals>
</board>
</drawing>
<compatibility>
<note version="6.3" minversion="6.2.2" severity="warning">
Since Version 6.2.2 text objects can contain more than one line,
which will not be processed correctly with this version.
</note>
</compatibility>
</eagle>
